04_Gaußstrahlen/data/T0004.CSV

Model,DPO2002B
Firmware Version,1.52

Point Format,Y,,,
Horizontal Units,S,,,
Horizontal Scale,0.001,,,
Sample Interval,1.92012e-06,,,
Filter Frequency,7e+07,,,
Record Length,5208,,,
Gating,0.0% to 100.0%,,0.0% to 100.0%,
Probe Attenuation,1,,1,
Vertical Units,V,,V,
Vertical Offset,0,,0,
Vertical Scale,0.5,,0.05,
Label,,,,
TIME,CH1,CH1 Peak Detect,CH2,CH2 Peak Detect
-4.380e-03,-0.12,-0.1,-0.006,0.002
-4.378e-03,-0.12,-0.16,-0.006,-0.012
-4.376e-03,-0.12,-0.1,-0.004,-4.76837e-10
-4.374e-03,-0.12,-0.16,-0.006,-0.01
-4.372e-03,-0.12,-0.1,-0.002,0.002
-4.370e-03,-0.12,-0.16,-0.008,-0.01
-4.368e-03,-0.14,-0.1,-0.004,0.002
-4.367e-03,-0.14,-0.16,-0.004,-0.01
-4.365e-03,-0.14,-0.1,-0.006,-4.76837e-10
-4.363e-03,-0.14,-0.16,-0.006,-0.01
-4.361e-03,-0.12,-0.1,-0.006,0.002
-4.359e-03,-0.14,-0.16,-0.004,-0.012
-4.357e-03,-0.14,-0.1,-0.004,0.002
-4.355e-03,-0.14,-0.16,-0.006,-0.01
-4.353e-03,-0.12,-0.1,-0.006,0.002
-4.351e-03,-0.14,-0.16,-0.004,-0.01
-4.349e-03,-0.14,-0.1,-0.004,-4.76837e-10
-4.347e-03,-0.12,-0.18,-0.002,-0.01
-4.345e-03,-0.14,-0.1,-0.002,-4.76837e-10
-4.344e-03,-0.12,-0.18,-0.004,-0.01
-4.342e-03,-0.12,-0.1,-0.004,-4.76837e-10
-4.340e-03,-0.14,-0.16,-0.004,-0.01
-4.338e-03,-0.12,-0.1,-0.004,-4.76837e-10
-4.336e-03,-0.16,-0.16,-0.002,-0.01
-4.334e-03,-0.14,-0.1,-0.004,0.002
-4.332e-03,-0.14,-0.18,-0.006,-0.012
-4.330e-03,-0.14,-0.12,-0.004,0.002
-4.328e-03,-0.16,-0.18,-0.006,-0.01
-4.326e-03,-0.14,-0.12,-0.004,0.002
-4.324e-03,-0.14,-0.18,-0.004,-0.01
-4.322e-03,-0.14,-0.12,-0.004,0.002
-4.320e-03,-0.14,-0.18,-0.006,-0.01
-4.319e-03,-0.14,-0.12,-0.006,0.002
-4.317e-03,-0.14,-0.18,-0.004,-0.01
-4.315e-03,-0.16,-0.12,-0.004,-4.76837e-10
-4.313e-03,-0.14,-0.18,-0.002,-0.01
-4.311e-03,-0.14,-0.12,-0.002,-4.76837e-10
-4.309e-03,-0.14,-0.18,-0.006,-0.01
-4.307e-03,-0.14,-0.12,-0.004,0.002
-4.305e-03,-0.14,-0.18,-0.006,-0.01
-4.303e-03,-0.14,-0.12,-0.006,0.002
-4.301e-03,-0.14,-0.18,-0.004,-0.01
-4.299e-03,-0.14,-0.12,-0.002,-4.76837e-10
-4.297e-03,-0.14,-0.18,-0.004,-0.01
-4.296e-03,-0.14,-0.12,-0.006,-4.76837e-10
-4.294e-03,-0.16,-0.18,-0.006,-0.01
-4.292e-03,-0.16,-0.12,-0.006,-4.76837e-10
-4.290e-03,-0.14,-0.18,-0.006,-0.01
-4.288e-03,-0.16,-0.12,-0.002,0.002
-4.286e-03,-0.14,-0.18,-0.004,-0.01
-4.284e-03,-0.14,-0.12,-0.004,0.002
-4.282e-03,-0.16,-0.18,-0.006,-0.01
-4.280e-03,-0.14,-0.12,-0.006,0.002
-4.278e-03,-0.16,-0.18,-0.006,-0.01
-4.276e-03,-0.14,-0.12,-0.006,-4.76837e-10
-4.274e-03,-0.16,-0.18,-0.006,-0.01
-4.272e-03,-0.16,-0.12,-0.004,0.002
-4.271e-03,-0.16,-0.18,-0.006,-0.01
-4.269e-03,-0.14,-0.12,-0.004,-4.76837e-10
-4.267e-03,-0.14,-0.18,-0.006,-0.01
-4.265e-03,-0.16,-0.12,-0.006,-4.76837e-10
-4.263e-03,-0.16,-0.18,-0.004,-0.01
-4.261e-03,-0.14,-0.14,-0.008,-4.76837e-10
-4.259e-03,-0.14,-0.18,-0.006,-0.01
-4.257e-03,-0.16,-0.12,-0.008,0.002
-4.255e-03,-0.16,-0.18,-0.004,-0.01
-4.253e-03,-0.16,-0.12,-0.004,0.002
-4.251e-03,-0.14,-0.2,-0.006,-0.01
-4.249e-03,-0.16,-0.12,-0.004,0.002
-4.248e-03,-0.16,-0.18,-0.004,-0.01
-4.246e-03,-0.16,-0.14,-0.004,0.002
-4.244e-03,-0.14,-0.18,-0.006,-0.01
-4.242e-03,-0.16,-0.12,-0.004,0.002
-4.240e-03,-0.16,-0.2,-0.01,-0.01
-4.238e-03,-0.16,-0.14,-4.76837e-10,0.002
-4.236e-03,-0.16,-0.2,-0.004,-0.012
-4.234e-03,-0.18,-0.14,-0.002,0.002
-4.232e-03,-0.16,-0.18,-0.006,-0.01
-4.230e-03,-0.16,-0.14,-0.004,0.002
-4.228e-03,-0.16,-0.18,-0.002,-0.01
-4.226e-03,-0.16,-0.14,-0.004,-4.76837e-10
-4.224e-03,-0.16,-0.18,-0.004,-0.01
-4.223e-03,-0.16,-0.14,-0.004,0.002
-4.221e-03,-0.16,-0.2,-0.006,-0.01
-4.219e-03,-0.16,-0.14,-0.006,-4.76837e-10
-4.217e-03,-0.18,-0.2,-0.004,-0.008
-4.215e-03,-0.16,-0.14,-0.004,0.002
-4.213e-03,-0.16,-0.2,-0.006,-0.01
-4.211e-03,-0.16,-0.14,-0.004,0.002
-4.209e-03,-0.16,-0.2,-0.008,-0.01
-4.207e-03,-0.16,-0.14,-0.006,0.002
-4.205e-03,-0.16,-0.2,-0.002,-0.01
-4.203e-03,-0.18,-0.14,-0.006,0.004
-4.201e-03,-0.16,-0.2,-0.006,-0.01
-4.200e-03,-0.16,-0.14,-0.006,0.002
-4.198e-03,-0.16,-0.2,-0.002,-0.01
-4.196e-03,-0.16,-0.14,-0.006,0.002
-4.194e-03,-0.16,-0.2,-0.002,-0.01
-4.192e-03,-0.16,-0.14,-0.006,0.002
-4.190e-03,-0.18,-0.2,-0.006,-0.01
-4.188e-03,-0.18,-0.14,-0.008,0.002
-4.186e-03,-0.16,-0.2,-0.006,-0.01
-4.184e-03,-0.16,-0.14,-0.006,0.002
-4.182e-03,-0.18,-0.2,-0.006,-0.01
-4.180e-03,-0.16,-0.14,-0.002,0.002
-4.178e-03,-0.16,-0.2,-0.002,-0.01
-4.176e-03,-0.16,-0.14,-0.006,0.002
-4.175e-03,-0.18,-0.2,-0.002,-0.01
-4.173e-03,-0.18,-0.14,-0.002,0.002
-4.171e-03,-0.16,-0.2,-0.004,-0.01
-4.169e-03,-0.16,-0.14,-0.008,-4.76837e-10
-4.167e-03,-0.18,-0.2,-0.006,-0.01
-4.165e-03,-0.16,-0.14,-0.006,0.002
-4.163e-03,-0.18,-0.2,-0.008,-0.01
-4.161e-03,-0.18,-0.16,-0.008,0.002
-4.159e-03,-0.18,-0.2,-0.006,-0.01
-4.157e-03,-0.18,-0.16,-0.006,-4.76837e-10
-4.155e-03,-0.18,-0.2,-0.004,-0.01
-4.153e-03,-0.18,-0.16,-0.006,-4.76837e-10
-4.152e-03,-0.18,-0.22,-0.004,-0.01
-4.150e-03,-0.18,-0.16,-0.004,-4.76837e-10
-4.148e-03,-0.18,-0.2,-0.006,-0.01
-4.146e-03,-0.18,-0.16,-0.002,0.002
-4.144e-03,-0.18,-0.22,-0.004,-0.01
-4.142e-03,-0.18,-0.16,-0.006,0.002
-4.140e-03,-0.18,-0.2,-0.006,-0.01
-4.138e-03,-0.18,-0.16,-0.008,0.002
-4.136e-03,-0.16,-0.22,-0.006,-0.01
-4.134e-03,-0.18,-0.16,-0.006,-4.76837e-10
-4.132e-03,-0.18,-0.22,-0.004,-0.01
-4.130e-03,-0.18,-0.16,-0.002,0.002
-4.128e-03,-0.18,-0.22,-0.006,-0.01
-4.127e-03,-0.18,-0.16,-0.006,0.002
-4.125e-03,-0.2,-0.22,-0.006,-0.01
-4.123e-03,-0.18,-0.16,-0.006,0.002
-4.121e-03,-0.18,-0.22,-0.006,-0.01
-4.119e-03,-0.2,-0.16,-0.004,0.002
-4.117e-03,-0.16,-0.22,-0.006,-0.008
-4.115e-03,-0.2,-0.16,-0.004,0.002
-4.113e-03,-0.18,-0.22,-0.002,-0.01
-4.111e-03,-0.16,-0.16,-0.004,0.002
-4.109e-03,-0.2,-0.22,-0.004,-0.01
-4.107e-03,-0.18,-0.16,-0.006,0.002
-4.105e-03,-0.18,-0.22,-0.006,-0.01
-4.104e-03,-0.18,-0.16,-0.006,0.002
-4.102e-03,-0.18,-0.22,-0.002,-0.01
-4.100e-03,-0.18,-0.16,-0.006,0.002
-4.098e-03,-0.18,-0.22,-0.006,-0.01
-4.096e-03,-0.18,-0.16,-0.006,0.002
-4.094e-03,-0.18,-0.22,-0.006,-0.01
-4.092e-03,-0.18,-0.16,-0.004,0.002
-4.090e-03,-0.2,-0.22,-0.008,-0.01
-4.088e-03,-0.2,-0.16,-0.006,0.002
-4.086e-03,-0.18,-0.22,-0.006,-0.01
-4.084e-03,-0.2,-0.16,-0.006,0.002
-4.082e-03,-0.18,-0.22,-0.006,-0.01
-4.080e-03,-0.2,-0.16,-0.004,0.002
-4.079e-03,-0.2,-0.22,-0.008,-0.01
-4.077e-03,-0.18,-0.16,-0.002,0.002
-4.075e-03,-0.2,-0.22,-0.006,-0.01
-4.073e-03,-0.18,-0.16,-0.006,0.002
-4.071e-03,-0.2,-0.22,-0.006,-0.01
-4.069e-03,-0.18,-0.18,-0.008,-4.76837e-10
-4.067e-03,-0.18,-0.24,-0.002,-0.01
-4.065e-03,-0.18,-0.18,-0.006,0.002
-4.063e-03,-0.2,-0.22,-0.004,-0.01
-4.061e-03,-0.2,-0.16,-0.004,0.002
-4.059e-03,-0.2,-0.22,-0.004,-0.01
-4.057e-03,-0.2,-0.16,-0.002,0.002
-4.055e-03,-0.2,-0.22,-0.004,-0.01
-4.054e-03,-0.22,-0.16,-0.004,0.002
-4.052e-03,-0.18,-0.24,-0.002,-0.01
-4.050e-03,-0.2,-0.18,-0.006,0.002
-4.048e-03,-0.22,-0.24,-0.006,-0.01
-4.046e-03,-0.2,-0.18,-0.006,0.002
-4.044e-03,-0.2,-0.24,-0.004,-0.01
-4.042e-03,-0.2,-0.16,-0.006,0.002
-4.040e-03,-0.18,-0.24,-0.002,-0.01
-4.038e-03,-0.2,-0.16,-0.006,0.002
-4.036e-03,-0.2,-0.24,-0.004,-0.01
-4.034e-03,-0.2,-0.18,-0.006,0.002
-4.032e-03,-0.22,-0.24,-0.002,-0.01
-4.031e-03,-0.2,-0.18,-0.002,0.002
-4.029e-03,-0.2,-0.24,-0.002,-0.01
-4.027e-03,-0.2,-0.18,-0.006,0.002
-4.025e-03,-0.22,-0.24,-0.004,-0.01
-4.023e-03,-0.2,-0.18,-0.008,0.002
-4.021e-03,-0.2,-0.24,-0.004,-0.008
-4.019e-03,-0.2,-0.18,-0.006,0.004
-4.017e-03,-0.22,-0.24,-0.002,-0.01
-4.015e-03,-0.2,-0.18,-0.004,0.002
-4.013e-03,-0.22,-0.24,-0.006,-0.01
-4.011e-03,-0.2,-0.18,-0.004,0.002
-4.009e-03,-0.2,-0.24,-0.006,-0.01
-4.007e-03,-0.22,-0.18,-0.004,0.002
-4.006e-03,-0.22,-0.24,-0.004,-0.01
-4.004e-03,-0.22,-0.18,-0.008,0.002
-4.002e-03,-0.2,-0.24,-0.004,-0.01
-4.000e-03,-0.22,-0.18,-0.004,0.002
-3.998e-03,-0.22,-0.24,-0.006,-0.01
-3.996e-03,-0.2,-0.18,-0.004,0.002
-3.994e-03,-0.2,-0.26,-0.008,-0.01
-3.992e-03,-0.22,-0.18,-0.004,0.002
-3.990e-03,-0.24,-0.24,-0.002,-0.008
-3.988e-03,-0.2,-0.18,-0.002,0.002
-3.986e-03,-0.2,-0.24,-0.004,-0.01
-3.984e-03,-0.22,-0.18,-0.006,0.002
-3.983e-03,-0.22,-0.24,-0.006,-0.01
-3.981e-03,-0.22,-0.18,-0.004,0.002
-3.979e-03,-0.2,-0.24,-4.76837e-10,-0.01
-3.977e-03,-0.22,-0.18,-0.006,0.004
-3.975e-03,-0.22,-0.26,-0.006,-0.01
-3.973e-03,-0.22,-0.2,-0.004,0.002
-3.971e-03,-0.22,-0.26,-0.002,-0.01
-3.969e-03,-0.22,-0.2,-0.004,0.002
-3.967e-03,-0.2,-0.26,-0.004,-0.008
-3.965e-03,-0.22,-0.18,-4.76837e-10,0.002
-3.963e-03,-0.22,-0.24,-0.004,-0.008
-3.961e-03,-0.22,-0.2,-0.002,0.002
-3.959e-03,-0.22,-0.26,-0.004,-0.01
-3.958e-03,-0.22,-0.2,-0.004,0.002
-3.956e-03,-0.22,-0.26,-0.004,-0.01
-3.954e-03,-0.22,-0.2,-0.004,0.002
-3.952e-03,-0.22,-0.26,-0.004,-0.01
-3.950e-03,-0.22,-0.2,-0.004,0.002
-3.948e-03,-0.24,-0.26,-0.002,-0.008
-3.946e-03,-0.24,-0.2,-0.004,0.002
-3.944e-03,-0.22,-0.26,-0.004,-0.01
-3.942e-03,-0.22,-0.2,-0.002,0.002
-3.940e-03,-0.24,-0.26,-0.002,-0.01
-3.938e-03,-0.22,-0.2,-0.004,0.002
-3.936e-03,-0.22,-0.26,-0.006,-0.01
-3.935e-03,-0.22,-0.2,-0.004,0.002
-3.933e-03,-0.24,-0.26,-0.002,-0.01
-3.931e-03,-0.24,-0.2,-0.002,0.002
-3.929e-03,-0.22,-0.26,-0.004,-0.01
-3.927e-03,-0.2,-0.18,-0.006,0.002
-3.925e-03,-0.22,-0.24,-0.004,-0.008
-3.923e-03,-0.22,-0.2,-0.004,0.002
-3.921e-03,-0.22,-0.26,-0.004,-0.01
-3.919e-03,-0.22,-0.2,-0.004,0.002
-3.917e-03,-0.24,-0.26,-0.002,-0.01
-3.915e-03,-0.22,-0.2,-0.002,0.002
-3.913e-03,-0.24,-0.26,-0.006,-0.01
-3.911e-03,-0.24,-0.2,-0.002,0.004
-3.910e-03,-0.22,-0.26,-0.002,-0.01
-3.908e-03,-0.22,-0.2,-4.76837e-10,0.004
-3.906e-03,-0.22,-0.26,-0.002,-0.008
-3.904e-03,-0.24,-0.2,-0.004,0.002
-3.902e-03,-0.22,-0.26,-0.002,-0.01
-3.900e-03,-0.24,-0.2,-0.006,0.002
-3.898e-03,-0.24,-0.26,-0.006,-0.008
-3.896e-03,-0.24,-0.2,-0.006,0.002
-3.894e-03,-0.24,-0.26,-0.002,-0.01
-3.892e-03,-0.26,-0.22,-0.002,0.002
-3.890e-03,-0.24,-0.26,-0.004,-0.008
-3.888e-03,-0.22,-0.2,-0.002,0.002
-3.887e-03,-0.24,-0.26,-0.004,-0.008
-3.885e-03,-0.22,-0.2,-0.004,0.004
-3.883e-03,-0.24,-0.26,-0.006,-0.008
-3.881e-03,-0.24,-0.2,-0.002,0.002
-3.879e-03,-0.26,-0.26,-0.002,-0.008
-3.877e-03,-0.24,-0.22,-0.004,0.002
-3.875e-03,-0.24,-0.26,-0.004,-0.008
-3.873e-03,-0.22,-0.2,-0.002,0.002
-3.871e-03,-0.24,-0.26,-0.006,-0.008
-3.869e-03,-0.26,-0.22,-0.002,0.002
-3.867e-03,-0.24,-0.28,-0.004,-0.01
-3.865e-03,-0.24,-0.22,-0.004,0.002
-3.863e-03,-0.24,-0.28,-0.004,-0.008
-3.862e-03,-0.24,-0.22,-0.002,0.002
-3.860e-03,-0.24,-0.28,-0.002,-0.01
-3.858e-03,-0.24,-0.22,-0.002,0.002
-3.856e-03,-0.24,-0.28,-0.004,-0.01
-3.854e-03,-0.24,-0.22,-0.004,0.004
-3.852e-03,-0.24,-0.28,-4.76837e-10,-0.008
-3.850e-03,-0.24,-0.22,-0.002,0.004
-3.848e-03,-0.24,-0.28,-0.006,-0.008
-3.846e-03,-0.24,-0.22,-4.76837e-10,0.004
-3.844e-03,-0.24,-0.28,-0.002,-0.008
-3.842e-03,-0.24,-0.22,-0.002,0.002
-3.840e-03,-0.24,-0.28,-0.002,-0.01
-3.839e-03,-0.24,-0.22,-4.76837e-10,0.004
-3.837e-03,-0.24,-0.28,-0.002,-0.008
-3.835e-03,-0.24,-0.22,-0.004,0.002
-3.833e-03,-0.24,-0.28,-0.004,-0.008
-3.831e-03,-0.26,-0.22,-0.002,0.002
-3.829e-03,-0.24,-0.28,-4.76837e-10,-0.008
-3.827e-03,-0.26,-0.22,-0.002,0.004
-3.825e-03,-0.22,-0.28,-0.002,-0.008
-3.823e-03,-0.24,-0.22,-0.002,0.004
-3.821e-03,-0.26,-0.28,-0.006,-0.008
-3.819e-03,-0.24,-0.22,-0.004,0.004
-3.817e-03,-0.24,-0.28,-4.76837e-10,-0.008
-3.815e-03,-0.26,-0.22,-0.004,0.004
-3.814e-03,-0.24,-0.28,-0.002,-0.008
-3.812e-03,-0.24,-0.22,-0.004,0.004
-3.810e-03,-0.24,-0.28,-0.002,-0.008
-3.808e-03,-0.26,-0.22,-0.006,0.004
-3.806e-03,-0.24,-0.28,-0.004,-0.008
-3.804e-03,-0.26,-0.22,-4.76837e-10,0.004
-3.802e-03,-0.26,-0.28,-0.004,-0.006
-3.800e-03,-0.26,-0.22,-0.002,0.004
-3.798e-03,-0.26,-0.3,-0.002,-0.006
-3.796e-03,-0.26,-0.24,-0.002,0.004
-3.794e-03,-0.24,-0.3,-4.76837e-10,-0.006
-3.792e-03,-0.26,-0.22,-0.002,0.004
-3.791e-03,-0.26,-0.3,-4.76837e-10,-0.008
-3.789e-03,-0.26,-0.24,-0.002,0.004
-3.787e-03,-0.26,-0.28,0.002,-0.006
-3.785e-03,-0.26,-0.22,-0.002,0.006
-3.783e-03,-0.26,-0.28,-0.002,-0.006
-3.781e-03,-0.26,-0.22,-4.76837e-10,0.006
-3.779e-03,-0.24,-0.3,-4.76837e-10,-0.004
-3.777e-03,-0.26,-0.24,0.002,0.008
-3.775e-03,-0.26,-0.3,-0.002,-0.006
-3.773e-03,-0.28,-0.22,-0.002,0.006
-3.771e-03,-0.26,-0.3,-4.76837e-10,-0.006
-3.769e-03,-0.26,-0.24,-0.002,0.006
-3.767e-03,-0.26,-0.3,-4.76837e-10,-0.006
-3.766e-03,-0.24,-0.24,-0.002,0.006
-3.764e-03,-0.26,-0.3,0.002,-0.004
-3.762e-03,-0.26,-0.24,0.002,0.008
-3.760e-03,-0.26,-0.3,0.004,-0.004
-3.758e-03,-0.28,-0.24,0.002,0.008
-3.756e-03,-0.26,-0.3,0.004,-0.004
-3.754e-03,-0.26,-0.24,0.004,0.008
-3.752e-03,-0.26,-0.3,-4.76837e-10,-0.002
-3.750e-03,-0.26,-0.24,0.002,0.008
-3.748e-03,-0.26,-0.3,0.004,-0.002
-3.746e-03,-0.26,-0.24,-4.76837e-10,0.008
-3.744e-03,-0.26,-0.3,0.004,-0.004
-3.743e-03,-0.24,-0.24,0.004,0.01
-3.741e-03,-0.24,-0.3,0.002,-0.002
-3.739e-03,-0.26,-0.24,0.004,0.01
-3.737e-03,-0.26,-0.3,-4.76837e-10,-0.002
-3.735e-03,-0.26,-0.24,0.006,0.012
-3.733e-03,-0.26,-0.3,0.006,-4.76837e-10
-3.731e-03,-0.28,-0.24,0.008,0.01
-3.729e-03,-0.26,-0.3,0.008,0.002
-3.727e-03,-0.26,-0.24,0.008,0.014
-3.725e-03,-0.26,-0.3,0.008,0.002
-3.723e-03,-0.26,-0.24,0.01,0.014
-3.721e-03,-0.28,-0.3,0.01,0.002
-3.719e-03,-0.26,-0.24,0.012,0.016
-3.718e-03,-0.28,-0.32,0.01,0.006
-3.716e-03,-0.28,-0.26,0.01,0.016
-3.714e-03,-0.28,-0.3,0.01,0.008
-3.712e-03,-0.28,-0.24,0.012,0.018
-3.710e-03,-0.26,-0.3,0.016,0.008
-3.708e-03,-0.28,-0.24,0.016,0.02
-3.706e-03,-0.26,-0.3,0.016,0.01
-3.704e-03,-0.26,-0.24,0.02,0.024
-3.702e-03,-0.28,-0.32,0.022,0.014
-3.700e-03,-0.28,-0.24,0.022,0.026
-3.698e-03,-0.28,-0.3,0.026,0.018
-3.696e-03,-0.26,-0.24,0.026,0.03
-3.695e-03,-0.28,-0.32,0.03,0.022
-3.693e-03,-0.28,-0.24,0.028,0.034
-3.691e-03,-0.28,-0.32,0.034,0.028
-3.689e-03,-0.28,-0.26,0.04,0.042
-3.687e-03,-0.26,-0.32,0.044,0.032
-3.685e-03,-0.26,-0.26,0.046,0.05
-3.683e-03,-0.28,-0.32,0.048,0.04
-3.681e-03,-0.28,-0.24,0.056,0.058
-3.679e-03,-0.28,-0.32,0.062,0.052
-3.677e-03,-0.28,-0.26,0.07,0.074
-3.675e-03,-0.28,-0.32,0.076,0.064
-3.673e-03,-0.28,-0.26,0.08,0.09
-3.671e-03,-0.28,-0.32,0.098,0.08
-3.670e-03,-0.28,-0.26,0.106,0.112
-3.668e-03,-0.28,-0.32,0.124,0.104
-3.666e-03,-0.28,-0.26,0.136,0.138
-3.664e-03,-0.28,-0.32,0.154,0.132
-3.662e-03,-0.26,-0.26,0.172,0.176
-3.660e-03,-0.26,-0.32,0.196,0.17
-3.658e-03,-0.28,-0.26,0.22,0.22
-3.656e-03,-0.28,-0.32,0.242,0.216
-3.654e-03,-0.28,-0.26,0.262,0.264
-3.652e-03,-0.28,-0.32,0.282,0.26
-3.650e-03,-0.28,-0.26,0.29,0.294
-3.648e-03,-0.28,-0.32,0.296,0.286
-3.647e-03,-0.28,-0.26,0.288,0.302
-3.645e-03,-0.28,-0.32,0.28,0.258
-3.643e-03,-0.3,-0.26,0.262,0.294
-3.641e-03,-0.28,-0.32,0.242,0.216
-3.639e-03,-0.3,-0.26,0.218,0.266
-3.637e-03,-0.3,-0.32,0.196,0.176
-3.635e-03,-0.3,-0.26,0.18,0.222
-3.633e-03,-0.28,-0.32,0.158,0.138
-3.631e-03,-0.3,-0.26,0.142,0.18
-3.629e-03,-0.3,-0.32,0.126,0.112
-3.627e-03,-0.28,-0.26,0.116,0.144
-3.625e-03,-0.28,-0.32,0.102,0.088
-3.623e-03,-0.3,-0.26,0.092,0.118
-3.622e-03,-0.28,-0.32,0.084,0.072
-3.620e-03,-0.3,-0.26,0.076,0.094
-3.618e-03,-0.3,-0.32,0.07,0.056
-3.616e-03,-0.28,-0.26,0.06,0.08
-3.614e-03,-0.28,-0.32,0.054,0.046
-3.612e-03,-0.3,-0.26,0.052,0.066
-3.610e-03,-0.28,-0.32,0.046,0.038
-3.608e-03,-0.3,-0.26,0.044,0.054
-3.606e-03,-0.3,-0.32,0.036,0.03
-3.604e-03,-0.3,-0.26,0.036,0.046
-3.602e-03,-0.3,-0.32,0.032,0.024
-3.600e-03,-0.3,-0.28,0.028,0.04
-3.599e-03,-0.3,-0.32,0.028,0.018
-3.597e-03,-0.3,-0.26,0.026,0.034
-3.595e-03,-0.3,-0.34,0.026,0.018
-3.593e-03,-0.28,-0.26,0.024,0.03
-3.591e-03,-0.3,-0.34,0.022,0.014
-3.589e-03,-0.3,-0.28,0.016,0.026
-3.587e-03,-0.3,-0.34,0.02,0.01
-3.585e-03,-0.3,-0.28,0.014,0.022
-3.583e-03,-0.3,-0.34,0.022,0.01
-3.581e-03,-0.3,-0.28,0.01,0.022
-3.579e-03,-0.3,-0.34,0.012,0.008
-3.577e-03,-0.3,-0.26,0.012,0.018
-3.575e-03,-0.3,-0.34,0.014,0.006
-3.574e-03,-0.3,-0.28,0.01,0.016
-3.572e-03,-0.3,-0.34,0.004,0.002
-3.570e-03,-0.3,-0.26,0.006,0.016
-3.568e-03,-0.3,-0.32,0.012,0.002
-3.566e-03,-0.3,-0.28,0.01,0.014
-3.564e-03,-0.3,-0.34,0.01,-4.76837e-10
-3.562e-03,-0.3,-0.28,0.006,0.014
-3.560e-03,-0.3,-0.34,0.008,-4.76837e-10
-3.558e-03,-0.3,-0.28,0.008,0.012
-3.556e-03,-0.3,-0.34,0.002,-4.76837e-10
-3.554e-03,-0.3,-0.28,0.004,0.01
-3.552e-03,-0.3,-0.34,0.004,-0.002
-3.551e-03,-0.32,-0.28,0.004,0.01
-3.549e-03,-0.3,-0.34,0.004,-0.002
-3.547e-03,-0.32,-0.28,0.004,0.008
-3.545e-03,-0.28,-0.34,-4.76837e-10,-0.002
-3.543e-03,-0.32,-0.28,0.002,0.01
-3.541e-03,-0.3,-0.34,0.002,-0.002
-3.539e-03,-0.3,-0.28,0.002,0.01
-3.537e-03,-0.3,-0.36,0.002,-0.002
-3.535e-03,-0.3,-0.28,0.002,0.008
-3.533e-03,-0.3,-0.34,0.002,-0.004
-3.531e-03,-0.3,-0.28,0.006,0.008
-3.529e-03,-0.32,-0.34,-0.002,-0.006
-3.527e-03,-0.32,-0.28,0.002,0.008
-3.526e-03,-0.3,-0.34,-4.76837e-10,-0.004
-3.524e-03,-0.32,-0.28,-0.004,0.006
-3.522e-03,-0.3,-0.34,-4.76837e-10,-0.004
-3.520e-03,-0.3,-0.28,-4.76837e-10,0.006
-3.518e-03,-0.32,-0.34,0.002,-0.004
-3.516e-03,-0.3,-0.28,0.002,0.006
-3.514e-03,-0.32,-0.36,-0.002,-0.006
-3.512e-03,-0.3,-0.28,0.002,0.006
-3.510e-03,-0.32,-0.36,-0.002,-0.006
-3.508e-03,-0.3,-0.28,0.002,0.006
-3.506e-03,-0.32,-0.34,-0.002,-0.006
-3.504e-03,-0.3,-0.28,-0.002,0.004
-3.503e-03,-0.32,-0.34,-0.002,-0.006
-3.501e-03,-0.32,-0.28,-0.002,0.006
-3.499e-03,-0.32,-0.36,-0.002,-0.006
-3.497e-03,-0.32,-0.28,0.002,0.006
-3.495e-03,-0.3,-0.34,-4.76837e-10,-0.006
-3.493e-03,-0.3,-0.28,-0.002,0.006
-3.491e-03,-0.3,-0.34,0.002,-0.006
-3.489e-03,-0.32,-0.28,-4.76837e-10,0.006
-3.487e-03,-0.3,-0.36,-0.002,-0.006
-3.485e-03,-0.32,-0.28,-0.002,0.008
-3.483e-03,-0.32,-0.36,-4.76837e-10,-0.006
-3.481e-03,-0.32,-0.3,-0.002,0.006
-3.479e-03,-0.32,-0.36,0.002,-0.006
-3.478e-03,-0.32,-0.3,-4.76837e-10,0.006
-3.476e-03,-0.32,-0.36,-4.76837e-10,-0.004
-3.474e-03,-0.3,-0.28,0.002,0.006
-3.472e-03,-0.3,-0.36,0.004,-0.004
-3.470e-03,-0.3,-0.28,0.002,0.01
-3.468e-03,-0.32,-0.36,-4.76837e-10,-0.004
-3.466e-03,-0.32,-0.3,0.006,0.008
-3.464e-03,-0.32,-0.36,0.002,-0.002
-3.462e-03,-0.32,-0.28,0.004,0.01
-3.460e-03,-0.34,-0.36,0.008,-4.76837e-10
-3.458e-03,-0.32,-0.3,0.004,0.01
-3.456e-03,-0.32,-0.36,0.002,-0.004
-3.455e-03,-0.32,-0.3,-4.76837e-10,0.01
-3.453e-03,-0.3,-0.36,0.002,-0.004
-3.451e-03,-0.32,-0.3,-4.76837e-10,0.008
-3.449e-03,-0.34,-0.36,0.002,-0.006
-3.447e-03,-0.32,-0.3,-0.002,0.008
-3.445e-03,-0.32,-0.36,-4.76837e-10,-0.006
-3.443e-03,-0.32,-0.3,0.002,0.006
-3.441e-03,-0.32,-0.36,-0.002,-0.006
-3.439e-03,-0.3,-0.3,-4.76837e-10,0.006
-3.437e-03,-0.34,-0.36,-0.002,-0.006
-3.435e-03,-0.34,-0.3,-0.004,0.006
-3.433e-03,-0.32,-0.36,-4.76837e-10,-0.006
-3.431e-03,-0.34,-0.3,-0.002,0.004
-3.430e-03,-0.34,-0.36,-4.76837e-10,-0.008
-3.428e-03,-0.34,-0.3,-0.004,0.004
-3.426e-03,-0.32,-0.36,-4.76837e-10,-0.008
-3.424e-03,-0.34,-0.3,-4.76837e-10,0.004
-3.422e-03,-0.34,-0.36,-0.004,-0.01
-3.420e-03,-0.32,-0.3,-0.004,0.004
-3.418e-03,-0.32,-0.36,-4.76837e-10,-0.008
-3.416e-03,-0.34,-0.3,-0.002,0.004
-3.414e-03,-0.34,-0.38,-0.004,-0.008
-3.412e-03,-0.32,-0.3,-0.004,0.002
-3.410e-03,-0.34,-0.38,-0.002,-0.01
-3.408e-03,-0.34,-0.3,-0.002,0.004
-3.406e-03,-0.34,-0.36,-0.002,-0.01
-3.405e-03,-0.34,-0.3,-0.002,0.004
-3.403e-03,-0.32,-0.38,-0.004,-0.008
-3.401e-03,-0.34,-0.32,-0.002,0.002
-3.399e-03,-0.34,-0.38,-0.004,-0.01
-3.397e-03,-0.34,-0.32,-0.006,0.004
-3.395e-03,-0.34,-0.38,-0.002,-0.008
-3.393e-03,-0.34,-0.3,-0.006,0.002
-3.391e-03,-0.32,-0.38,-0.004,-0.01
-3.389e-03,-0.34,-0.32,-0.002,0.002
-3.387e-03,-0.34,-0.38,-0.004,-0.01
-3.385e-03,-0.34,-0.3,-0.004,0.002
-3.383e-03,-0.34,-0.38,-0.002,-0.008
-3.382e-03,-0.32,-0.3,-4.76837e-10,0.002
-3.380e-03,-0.34,-0.38,-0.006,-0.01
-3.378e-03,-0.34,-0.32,-0.002,0.002
-3.376e-03,-0.34,-0.38,-0.004,-0.01
-3.374e-03,-0.34,-0.32,-0.002,0.002
-3.372e-03,-0.32,-0.38,-0.004,-0.01
-3.370e-03,-0.34,-0.32,-0.008,0.002
-3.368e-03,-0.34,-0.38,-0.004,-0.01
-3.366e-03,-0.34,-0.32,-0.004,0.002
-3.364e-03,-0.34,-0.38,-0.004,-0.01
-3.362e-03,-0.34,-0.32,-0.004,0.002
-3.360e-03,-0.34,-0.38,-0.002,-0.008
-3.358e-03,-0.34,-0.32,-0.004,0.002
-3.357e-03,-0.34,-0.38,-0.002,-0.01
-3.355e-03,-0.34,-0.32,-0.004,0.002
-3.353e-03,-0.36,-0.38,-0.008,-0.01
-3.351e-03,-0.34,-0.32,-0.004,0.004
-3.349e-03,-0.34,-0.38,-0.006,-0.01
-3.347e-03,-0.36,-0.32,-0.004,0.002
-3.345e-03,-0.34,-0.38,-0.004,-0.01
-3.343e-03,-0.34,-0.32,-0.004,0.002
