04_Gaußstrahlen/data/T0002ALL.CSV

Model,DPO2002B
Firmware Version,1.52

Point Format,Y,,,
Horizontal Units,S,,,
Horizontal Scale,0.001,,,
Sample Interval,1.92012e-06,,,
Filter Frequency,7e+07,,,
Record Length,5208,,,
Gating,0.0% to 100.0%,,0.0% to 100.0%,
Probe Attenuation,1,,1,
Vertical Units,V,,V,
Vertical Offset,0,,0,
Vertical Scale,0.5,,0.02,
Label,,,,
TIME,CH1,CH1 Peak Detect,CH2,CH2 Peak Detect
-4.380e-03,-0.16,-0.18,-0.002,-0.006
-4.378e-03,-0.16,-0.12,-0.0028,0.006
-4.376e-03,-0.16,-0.18,0.002,-0.0052
-4.374e-03,-0.14,-0.12,0.002,0.0052
-4.372e-03,-0.16,-0.2,0.002,-0.0068
-4.370e-03,-0.16,-0.12,0.0012,0.006
-4.368e-03,-0.18,-0.2,-0.000400001,-0.006
-4.367e-03,-0.16,-0.14,0.002,0.006
-4.365e-03,-0.16,-0.18,0.000399999,-0.0044
-4.363e-03,-0.18,-0.14,-0.000400001,0.006
-4.361e-03,-0.16,-0.2,0.002,-0.0044
-4.359e-03,-0.18,-0.14,0.0012,0.0068
-4.357e-03,-0.16,-0.2,0.0012,-0.0044
-4.355e-03,-0.18,-0.14,0.000399999,0.006
-4.353e-03,-0.16,-0.2,0.0012,-0.0036
-4.351e-03,-0.16,-0.14,0.0012,0.0068
-4.349e-03,-0.16,-0.2,0.0036,-0.0036
-4.347e-03,-0.16,-0.14,0.002,0.0076
-4.345e-03,-0.18,-0.2,0.0036,-0.0028
-4.344e-03,-0.16,-0.14,0.0012,0.0068
-4.342e-03,-0.16,-0.2,0.0036,-0.002
-4.340e-03,-0.16,-0.14,0.0036,0.0092
-4.338e-03,-0.16,-0.2,0.0028,-0.000400001
-4.336e-03,-0.18,-0.14,0.0036,0.0092
-4.334e-03,-0.16,-0.2,0.0068,-0.000400001
-4.332e-03,-0.16,-0.14,0.0036,0.01
-4.330e-03,-0.16,-0.2,0.0052,0.0012
-4.328e-03,-0.16,-0.14,0.0068,0.0116
-4.326e-03,-0.18,-0.2,0.006,0.000399999
-4.324e-03,-0.18,-0.14,0.0052,0.0108
-4.322e-03,-0.18,-0.2,0.0044,0.000399999
-4.320e-03,-0.16,-0.14,0.0052,0.0116
-4.319e-03,-0.16,-0.2,0.0076,0.000399999
-4.317e-03,-0.16,-0.14,0.006,0.0116
-4.315e-03,-0.2,-0.2,0.0076,0.000399999
-4.313e-03,-0.18,-0.14,0.0084,0.01
-4.311e-03,-0.16,-0.2,0.0076,-0.002
-4.309e-03,-0.16,-0.14,0.0076,0.0116
-4.307e-03,-0.16,-0.2,0.0068,0.000399999
-4.305e-03,-0.18,-0.14,0.0052,0.0116
-4.303e-03,-0.18,-0.2,0.0076,0.000399999
-4.301e-03,-0.16,-0.16,0.0076,0.01
-4.299e-03,-0.18,-0.2,0.0068,0.000399999
-4.297e-03,-0.18,-0.16,0.002,0.0124
-4.296e-03,-0.16,-0.2,0.0036,0.0012
-4.294e-03,-0.18,-0.14,0.0036,0.0132
-4.292e-03,-0.18,-0.2,0.006,0.002
-4.290e-03,-0.16,-0.16,0.0068,0.0132
-4.288e-03,-0.18,-0.2,0.0084,0.0028
-4.286e-03,-0.18,-0.16,0.0108,0.014
-4.284e-03,-0.18,-0.22,0.0092,0.0036
-4.282e-03,-0.18,-0.16,0.0084,0.0148
-4.280e-03,-0.18,-0.2,0.0108,0.0044
-4.278e-03,-0.18,-0.14,0.0084,0.0164
-4.276e-03,-0.18,-0.2,0.0108,0.0068
-4.274e-03,-0.18,-0.16,0.0132,0.0164
-4.272e-03,-0.18,-0.22,0.0156,0.0068
-4.271e-03,-0.18,-0.16,0.014,0.018
-4.269e-03,-0.18,-0.22,0.0156,0.0092
-4.267e-03,-0.18,-0.16,0.0156,0.0188
-4.265e-03,-0.18,-0.22,0.0148,0.0108
-4.263e-03,-0.18,-0.16,0.0196,0.0212
-4.261e-03,-0.18,-0.22,0.0196,0.0132
-4.259e-03,-0.2,-0.16,0.0196,0.0252
-4.257e-03,-0.2,-0.22,0.0188,0.0156
-4.255e-03,-0.18,-0.16,0.0212,0.0284
-4.253e-03,-0.2,-0.22,0.0252,0.0188
-4.251e-03,-0.18,-0.16,0.0236,0.03
-4.249e-03,-0.18,-0.22,0.0308,0.0236
-4.248e-03,-0.2,-0.16,0.034,0.0364
-4.246e-03,-0.18,-0.22,0.0348,0.0284
-4.244e-03,-0.18,-0.16,0.0372,0.0396
-4.242e-03,-0.2,-0.22,0.0396,0.0324
-4.240e-03,-0.18,-0.16,0.0436,0.0468
-4.238e-03,-0.2,-0.22,0.0492,0.0404
-4.236e-03,-0.2,-0.16,0.05,0.0532
-4.234e-03,-0.18,-0.22,0.0508,0.0468
-4.232e-03,-0.2,-0.16,0.0588,0.062
-4.230e-03,-0.2,-0.22,0.0652,0.0564
-4.228e-03,-0.2,-0.16,0.0668,0.0716
-4.226e-03,-0.18,-0.22,0.074,0.0644
-4.224e-03,-0.2,-0.16,0.0732,0.078
-4.223e-03,-0.2,-0.24,0.0796,0.0708
-4.221e-03,-0.2,-0.18,0.0804,0.0852
-4.219e-03,-0.2,-0.22,0.0804,0.0756
-4.217e-03,-0.2,-0.18,0.0852,0.0876
-4.215e-03,-0.2,-0.22,0.082,0.0772
-4.213e-03,-0.18,-0.16,0.082,0.0876
-4.211e-03,-0.2,-0.24,0.0804,0.0732
-4.209e-03,-0.2,-0.18,0.078,0.086
-4.207e-03,-0.2,-0.24,0.074,0.0668
-4.205e-03,-0.2,-0.18,0.07,0.0796
-4.203e-03,-0.2,-0.22,0.0628,0.0572
-4.201e-03,-0.2,-0.18,0.0636,0.0732
-4.200e-03,-0.2,-0.24,0.0564,0.05
-4.198e-03,-0.2,-0.16,0.0548,0.066
-4.196e-03,-0.22,-0.24,0.0484,0.0428
-4.194e-03,-0.2,-0.18,0.046,0.058
-4.192e-03,-0.2,-0.24,0.0428,0.0356
-4.190e-03,-0.22,-0.18,0.038,0.0516
-4.188e-03,-0.2,-0.24,0.0372,0.03
-4.186e-03,-0.2,-0.18,0.03,0.0428
-4.184e-03,-0.2,-0.24,0.03,0.0244
-4.182e-03,-0.18,-0.18,0.0284,0.0364
-4.180e-03,-0.22,-0.24,0.0252,0.0204
-4.178e-03,-0.2,-0.18,0.0244,0.0316
-4.176e-03,-0.2,-0.24,0.0236,0.0156
-4.175e-03,-0.2,-0.18,0.0204,0.0292
-4.173e-03,-0.2,-0.24,0.0196,0.0148
-4.171e-03,-0.2,-0.18,0.018,0.026
-4.169e-03,-0.22,-0.24,0.018,0.01
-4.167e-03,-0.2,-0.18,0.0148,0.0228
-4.165e-03,-0.2,-0.24,0.014,0.0084
-4.163e-03,-0.22,-0.18,0.014,0.0196
-4.161e-03,-0.22,-0.24,0.014,0.0076
-4.159e-03,-0.2,-0.18,0.0124,0.0188
-4.157e-03,-0.22,-0.24,0.0108,0.006
-4.155e-03,-0.2,-0.18,0.0076,0.0156
-4.153e-03,-0.22,-0.24,0.0092,0.0036
-4.152e-03,-0.22,-0.18,0.0092,0.0156
-4.150e-03,-0.2,-0.24,0.0068,0.002
-4.148e-03,-0.22,-0.18,0.006,0.0124
-4.146e-03,-0.22,-0.26,0.0068,0.0012
-4.144e-03,-0.22,-0.18,0.006,0.0124
-4.142e-03,-0.22,-0.24,0.0076,0.000399999
-4.140e-03,-0.2,-0.2,0.006,0.0116
-4.138e-03,-0.22,-0.24,0.0044,-0.000400001
-4.136e-03,-0.22,-0.18,0.0028,0.01
-4.134e-03,-0.22,-0.24,0.0036,-0.002
-4.132e-03,-0.22,-0.2,0.002,0.0092
-4.130e-03,-0.22,-0.24,0.006,-0.0012
-4.128e-03,-0.22,-0.2,0.0012,0.0084
-4.127e-03,-0.22,-0.24,0.0012,-0.002
-4.125e-03,-0.24,-0.2,0.0036,0.0084
-4.123e-03,-0.22,-0.26,0.0052,-0.002
-4.121e-03,-0.22,-0.2,0.0036,0.0076
-4.119e-03,-0.22,-0.26,0.0012,-0.002
-4.117e-03,-0.22,-0.2,0.0036,0.0084
-4.115e-03,-0.22,-0.26,0.002,-0.0028
-4.113e-03,-0.22,-0.2,-0.000400001,0.0076
-4.111e-03,-0.22,-0.26,0.0012,-0.0044
-4.109e-03,-0.24,-0.2,0.0012,0.0084
-4.107e-03,-0.24,-0.26,0.000399999,-0.0044
-4.105e-03,-0.22,-0.2,0.0012,0.0068
-4.104e-03,-0.22,-0.26,0.0036,-0.0044
-4.102e-03,-0.22,-0.2,0.002,0.0068
-4.100e-03,-0.24,-0.26,-0.000400001,-0.0036
-4.098e-03,-0.24,-0.2,-0.000400001,0.0052
-4.096e-03,-0.22,-0.26,0.0036,-0.0044
-4.094e-03,-0.22,-0.2,0.000399999,0.006
-4.092e-03,-0.22,-0.26,0.002,-0.0044
-4.090e-03,-0.24,-0.2,-0.0028,0.006
-4.088e-03,-0.22,-0.26,0.000399999,-0.0052
-4.086e-03,-0.22,-0.2,-0.0012,0.0052
-4.084e-03,-0.22,-0.26,-0.002,-0.006
-4.082e-03,-0.24,-0.2,-0.002,0.006
-4.080e-03,-0.24,-0.26,-0.0012,-0.0052
-4.079e-03,-0.22,-0.2,0.0012,0.0052
-4.077e-03,-0.22,-0.26,-0.000400001,-0.0044
-4.075e-03,-0.24,-0.2,0.002,0.0044
-4.073e-03,-0.24,-0.26,-0.000400001,-0.0052
-4.071e-03,-0.24,-0.2,-0.002,0.0052
-4.069e-03,-0.24,-0.26,-0.0012,-0.0052
-4.067e-03,-0.24,-0.2,-0.000400001,0.006
-4.065e-03,-0.24,-0.26,0.002,-0.006
-4.063e-03,-0.24,-0.22,0.0012,0.0036
-4.061e-03,-0.24,-0.26,0.000399999,-0.006
-4.059e-03,-0.24,-0.22,-0.002,0.0044
-4.057e-03,-0.24,-0.28,-0.0012,-0.0068
-4.055e-03,-0.24,-0.22,-0.000400001,0.0044
-4.054e-03,-0.24,-0.28,-0.000400001,-0.0068
-4.052e-03,-0.24,-0.22,-0.000400001,0.0044
-4.050e-03,-0.24,-0.28,0.000399999,-0.0052
-4.048e-03,-0.26,-0.22,-0.0012,0.0044
-4.046e-03,-0.24,-0.28,-0.0028,-0.006
-4.044e-03,-0.26,-0.22,-0.002,0.0036
-4.042e-03,-0.24,-0.28,-0.0012,-0.0052
-4.040e-03,-0.24,-0.22,-0.0012,0.0036
-4.038e-03,-0.24,-0.28,-0.0036,-0.006
-4.036e-03,-0.24,-0.22,-0.0044,0.0036
-4.034e-03,-0.24,-0.28,-0.000400001,-0.0052
-4.032e-03,-0.26,-0.22,-0.0012,0.006
-4.031e-03,-0.24,-0.28,-0.0012,-0.006
-4.029e-03,-0.24,-0.22,-0.002,0.0036
-4.027e-03,-0.24,-0.28,-0.000400001,-0.006
-4.025e-03,-0.26,-0.22,-0.0012,0.0036
-4.023e-03,-0.24,-0.28,-0.0012,-0.006
-4.021e-03,-0.24,-0.22,-0.0012,0.0044
-4.019e-03,-0.26,-0.28,-0.000400001,-0.0076
-4.017e-03,-0.26,-0.22,-0.0068,0.0036
-4.015e-03,-0.24,-0.28,-0.0028,-0.0068
-4.013e-03,-0.26,-0.24,-0.0052,0.0036
-4.011e-03,-0.26,-0.28,-0.0036,-0.0068
-4.009e-03,-0.24,-0.24,-0.002,0.0036
-4.007e-03,-0.24,-0.28,0.002,-0.006
-4.006e-03,-0.26,-0.22,-0.000400001,0.0044
-4.004e-03,-0.24,-0.3,-0.002,-0.006
-4.002e-03,-0.26,-0.22,-0.0012,0.0044
-4.000e-03,-0.24,-0.28,0.000399999,-0.0068
-3.998e-03,-0.26,-0.22,-0.002,0.0036
-3.996e-03,-0.26,-0.28,-0.0044,-0.006
-3.994e-03,-0.26,-0.22,-0.002,0.0036
-3.992e-03,-0.26,-0.28,-0.002,-0.0084
-3.990e-03,-0.24,-0.24,-0.002,0.0036
-3.988e-03,-0.26,-0.3,-0.0028,-0.0068
-3.986e-03,-0.26,-0.22,-0.0052,0.0028
-3.984e-03,-0.26,-0.3,-0.0012,-0.0068
-3.983e-03,-0.28,-0.24,-0.0036,0.0028
-3.981e-03,-0.26,-0.28,-0.002,-0.0076
-3.979e-03,-0.26,-0.24,-0.006,0.0028
-3.977e-03,-0.26,-0.28,-0.002,-0.0068
-3.975e-03,-0.26,-0.24,-0.0012,0.0036
-3.973e-03,-0.26,-0.28,-0.002,-0.0068
-3.971e-03,-0.26,-0.24,-0.000400001,0.0036
-3.969e-03,-0.26,-0.3,-0.0028,-0.0068
-3.967e-03,-0.26,-0.24,-0.000400001,0.0028
-3.965e-03,-0.26,-0.3,-0.0052,-0.0084
-3.963e-03,-0.26,-0.24,-0.000400001,0.0036
-3.961e-03,-0.26,-0.3,-0.0012,-0.0084
-3.959e-03,-0.26,-0.24,-0.0036,0.0044
-3.958e-03,-0.26,-0.3,-0.0036,-0.0068
-3.956e-03,-0.24,-0.24,-0.0012,0.0036
-3.954e-03,-0.26,-0.3,0.000399999,-0.0076
-3.952e-03,-0.26,-0.24,-0.000400001,0.0036
-3.950e-03,-0.26,-0.3,-0.0028,-0.0076
-3.948e-03,-0.28,-0.24,-0.0044,0.0028
-3.946e-03,-0.28,-0.3,-0.0012,-0.0068
-3.944e-03,-0.28,-0.24,-0.0012,0.0044
-3.942e-03,-0.28,-0.3,-0.000400001,-0.0076
-3.940e-03,-0.26,-0.24,-0.002,0.0028
-3.938e-03,-0.28,-0.3,-0.0044,-0.006
-3.936e-03,-0.28,-0.24,-0.0036,0.0028
-3.935e-03,-0.28,-0.3,-0.0044,-0.0076
-3.933e-03,-0.28,-0.24,0.000399999,0.0044
-3.931e-03,-0.26,-0.3,-0.0028,-0.0068
-3.929e-03,-0.26,-0.24,-0.0028,0.0028
-3.927e-03,-0.26,-0.3,-0.0044,-0.0068
-3.925e-03,-0.28,-0.24,-0.002,0.0028
-3.923e-03,-0.26,-0.3,-0.0012,-0.006
-3.921e-03,-0.28,-0.24,-0.0012,0.0044
-3.919e-03,-0.28,-0.32,-0.0028,-0.0076
-3.917e-03,-0.28,-0.24,-0.0028,0.0028
-3.915e-03,-0.26,-0.3,-0.000400001,-0.0084
-3.913e-03,-0.26,-0.24,-0.0052,0.0044
-3.911e-03,-0.28,-0.32,-0.000400001,-0.0068
-3.910e-03,-0.28,-0.26,-0.0012,0.0036
-3.908e-03,-0.28,-0.32,-0.0012,-0.0076
-3.906e-03,-0.28,-0.26,-0.006,0.0028
-3.904e-03,-0.28,-0.3,-0.0028,-0.0076
-3.902e-03,-0.26,-0.26,-0.0028,0.0028
-3.900e-03,-0.28,-0.32,-0.0044,-0.0076
-3.898e-03,-0.28,-0.24,-0.002,0.0028
-3.896e-03,-0.28,-0.32,-0.0036,-0.0076
-3.894e-03,-0.28,-0.26,-0.0036,0.0028
-3.892e-03,-0.26,-0.32,-0.000400001,-0.0084
-3.890e-03,-0.28,-0.24,-0.002,0.0036
-3.888e-03,-0.28,-0.32,-0.0012,-0.0068
-3.887e-03,-0.28,-0.26,-0.0012,0.002
-3.885e-03,-0.28,-0.32,-0.0036,-0.0076
-3.883e-03,-0.3,-0.26,-0.0036,0.0028
-3.881e-03,-0.28,-0.32,-0.0036,-0.0068
-3.879e-03,-0.28,-0.26,-0.0044,0.002
-3.877e-03,-0.28,-0.32,-0.000400001,-0.0076
-3.875e-03,-0.28,-0.26,-0.0036,0.0044
-3.873e-03,-0.28,-0.32,-0.0044,-0.0068
-3.871e-03,-0.28,-0.26,-0.0028,0.0028
-3.869e-03,-0.28,-0.32,-0.000400001,-0.0068
-3.867e-03,-0.28,-0.26,0.000399999,0.0044
-3.865e-03,-0.28,-0.32,-0.002,-0.0068
-3.863e-03,-0.3,-0.26,-0.0012,0.0036
-3.862e-03,-0.28,-0.32,-0.002,-0.0084
-3.860e-03,-0.3,-0.26,-0.0036,0.0028
-3.858e-03,-0.3,-0.32,0.000399999,-0.0068
-3.856e-03,-0.26,-0.26,-0.0012,0.0028
-3.854e-03,-0.3,-0.32,-0.0012,-0.0068
-3.852e-03,-0.28,-0.26,-0.000400001,0.002
-3.850e-03,-0.3,-0.32,-0.0012,-0.0068
-3.848e-03,-0.3,-0.26,-0.002,0.0036
-3.846e-03,-0.28,-0.32,-0.0012,-0.0076
-3.844e-03,-0.3,-0.26,0.000399999,0.0044
-3.842e-03,-0.28,-0.32,-0.000400001,-0.0076
-3.840e-03,-0.28,-0.26,-0.0028,0.0028
-3.839e-03,-0.3,-0.32,-0.0012,-0.0068
-3.837e-03,-0.3,-0.26,-0.0012,0.0028
-3.835e-03,-0.3,-0.34,-0.002,-0.0076
-3.833e-03,-0.3,-0.26,-0.000400001,0.0036
-3.831e-03,-0.3,-0.32,-0.0028,-0.0076
-3.829e-03,-0.3,-0.26,-0.002,0.0036
-3.827e-03,-0.3,-0.32,-0.0012,-0.0068
-3.825e-03,-0.3,-0.26,-0.0012,0.0036
-3.823e-03,-0.3,-0.34,-0.0028,-0.0068
-3.821e-03,-0.3,-0.28,-0.0052,0.002
-3.819e-03,-0.3,-0.34,-0.0012,-0.0076
-3.817e-03,-0.3,-0.28,-0.000400001,0.002
-3.815e-03,-0.3,-0.34,-0.0052,-0.0068
-3.814e-03,-0.3,-0.28,-0.0052,0.002
-3.812e-03,-0.3,-0.34,-0.0036,-0.0068
-3.810e-03,-0.3,-0.28,-0.0036,0.0036
-3.808e-03,-0.3,-0.34,-0.0012,-0.0068
-3.806e-03,-0.3,-0.28,-0.000400001,0.0036
-3.804e-03,-0.28,-0.34,-0.0052,-0.0076
-3.802e-03,-0.32,-0.28,-0.0028,0.0028
-3.800e-03,-0.3,-0.34,-0.0052,-0.0076
-3.798e-03,-0.3,-0.28,-0.002,0.0028
-3.796e-03,-0.3,-0.34,-0.002,-0.0076
-3.794e-03,-0.3,-0.28,-0.0012,0.0028
-3.792e-03,-0.3,-0.34,-0.0036,-0.0076
-3.791e-03,-0.3,-0.28,-0.0036,0.002
-3.789e-03,-0.3,-0.34,-0.0052,-0.0076
-3.787e-03,-0.3,-0.28,-0.0028,0.002
-3.785e-03,-0.32,-0.34,-0.002,-0.0076
-3.783e-03,-0.3,-0.28,-0.000400001,0.0052
-3.781e-03,-0.3,-0.34,-0.0028,-0.0076
-3.779e-03,-0.32,-0.28,-0.002,0.002
-3.777e-03,-0.3,-0.34,-0.0012,-0.0092
-3.775e-03,-0.3,-0.28,-0.0028,0.0028
-3.773e-03,-0.3,-0.34,-0.0044,-0.0076
-3.771e-03,-0.3,-0.28,-0.002,0.0028
-3.769e-03,-0.3,-0.34,-0.0036,-0.0068
-3.767e-03,-0.32,-0.28,-0.002,0.0028
-3.766e-03,-0.32,-0.34,-0.000400001,-0.0076
-3.764e-03,-0.32,-0.28,-0.006,0.0028
-3.762e-03,-0.3,-0.34,-0.0068,-0.0084
-3.760e-03,-0.32,-0.28,-0.0028,0.0028
-3.758e-03,-0.3,-0.34,-0.0028,-0.0084
-3.756e-03,-0.3,-0.28,-0.002,0.0036
-3.754e-03,-0.32,-0.36,-0.0036,-0.0076
-3.752e-03,-0.32,-0.3,-0.0012,0.002
-3.750e-03,-0.32,-0.36,-0.0028,-0.0076
-3.748e-03,-0.32,-0.28,-0.0044,0.002
-3.746e-03,-0.32,-0.36,-0.0044,-0.0068
-3.744e-03,-0.32,-0.3,-0.0044,0.002
-3.743e-03,-0.32,-0.36,-0.0036,-0.0076
-3.741e-03,-0.34,-0.3,-0.0044,0.0028
-3.739e-03,-0.32,-0.36,-0.0036,-0.0076
-3.737e-03,-0.32,-0.3,-0.0028,0.0036
-3.735e-03,-0.32,-0.36,-0.0028,-0.0068
-3.733e-03,-0.32,-0.3,-0.0012,0.002
-3.731e-03,-0.32,-0.36,-0.0044,-0.006
-3.729e-03,-0.32,-0.3,-0.0012,0.0028
-3.727e-03,-0.32,-0.36,-0.002,-0.0076
-3.725e-03,-0.32,-0.3,-0.0044,0.0028
-3.723e-03,-0.32,-0.36,-0.0044,-0.0092
-3.721e-03,-0.32,-0.3,-0.0036,0.0028
-3.719e-03,-0.32,-0.36,-0.002,-0.0092
-3.718e-03,-0.32,-0.3,-0.0052,0.0036
-3.716e-03,-0.32,-0.36,-0.0036,-0.0068
-3.714e-03,-0.32,-0.3,-0.002,0.002
-3.712e-03,-0.32,-0.36,-0.000400001,-0.0068
-3.710e-03,-0.32,-0.3,-0.0012,0.0028
-3.708e-03,-0.32,-0.36,-0.0012,-0.0076
-3.706e-03,-0.32,-0.3,-0.0044,0.0036
-3.704e-03,-0.34,-0.36,-0.0028,-0.0084
-3.702e-03,-0.32,-0.3,-0.0044,0.0028
-3.700e-03,-0.34,-0.36,-0.002,-0.0084
-3.698e-03,-0.32,-0.3,-0.0052,0.0028
-3.696e-03,-0.32,-0.36,-0.0012,-0.0084
-3.695e-03,-0.32,-0.3,-0.000400001,0.0028
-3.693e-03,-0.34,-0.36,-0.0036,-0.0076
-3.691e-03,-0.32,-0.3,-0.0028,0.0036
-3.689e-03,-0.32,-0.36,-0.0044,-0.0076
-3.687e-03,-0.32,-0.3,-0.0028,0.0028
-3.685e-03,-0.34,-0.36,-0.002,-0.0076
-3.683e-03,-0.32,-0.3,-0.0044,0.002
-3.681e-03,-0.34,-0.36,-0.0028,-0.0084
-3.679e-03,-0.34,-0.3,-0.0012,0.002
-3.677e-03,-0.34,-0.36,-0.0044,-0.0076
-3.675e-03,-0.32,-0.3,-0.000400001,0.0036
-3.673e-03,-0.32,-0.38,-0.0036,-0.0068
-3.671e-03,-0.34,-0.3,-0.0036,0.0044
-3.670e-03,-0.34,-0.38,-0.0028,-0.0076
-3.668e-03,-0.34,-0.3,-0.002,0.002
-3.666e-03,-0.34,-0.38,-0.0028,-0.0076
-3.664e-03,-0.34,-0.3,-0.002,0.002
-3.662e-03,-0.34,-0.38,-0.0012,-0.0076
-3.660e-03,-0.34,-0.32,-0.0044,0.0028
-3.658e-03,-0.34,-0.38,-0.000400001,-0.0092
-3.656e-03,-0.34,-0.32,-0.0036,0.002
-3.654e-03,-0.34,-0.38,-0.002,-0.0084
-3.652e-03,-0.32,-0.32,-0.000400001,0.002
-3.650e-03,-0.34,-0.38,-0.0044,-0.0076
-3.648e-03,-0.34,-0.32,-0.0028,0.002
-3.647e-03,-0.34,-0.38,-0.002,-0.0092
-3.645e-03,-0.34,-0.32,-0.0028,0.0028
-3.643e-03,-0.34,-0.38,-0.0028,-0.01
-3.641e-03,-0.34,-0.32,-0.0028,0.0012
-3.639e-03,-0.34,-0.38,-0.0012,-0.0068
-3.637e-03,-0.34,-0.32,-0.0044,0.0036
-3.635e-03,-0.34,-0.38,-0.002,-0.0076
-3.633e-03,-0.34,-0.32,-0.000400001,0.002
-3.631e-03,-0.34,-0.38,-0.0044,-0.0084
-3.629e-03,-0.34,-0.32,-0.002,0.0028
-3.627e-03,-0.34,-0.38,-0.000400001,-0.0084
-3.625e-03,-0.36,-0.32,-0.0028,0.002
-3.623e-03,-0.34,-0.38,-0.0036,-0.0084
-3.622e-03,-0.36,-0.32,-0.0012,0.002
-3.620e-03,-0.34,-0.38,-0.0028,-0.0076
-3.618e-03,-0.34,-0.32,-0.0012,0.002
-3.616e-03,-0.36,-0.38,-0.0052,-0.0076
-3.614e-03,-0.36,-0.32,-0.002,0.0044
-3.612e-03,-0.34,-0.38,-0.0012,-0.0084
-3.610e-03,-0.36,-0.32,-0.0012,0.002
-3.608e-03,-0.34,-0.38,-0.002,-0.0068
-3.606e-03,-0.36,-0.32,-0.0028,0.0028
-3.604e-03,-0.36,-0.4,-0.002,-0.0076
-3.602e-03,-0.34,-0.32,-0.0028,0.002
-3.600e-03,-0.34,-0.4,-0.0036,-0.0084
-3.599e-03,-0.36,-0.32,-0.0028,0.0044
-3.597e-03,-0.34,-0.4,-0.0028,-0.0076
-3.595e-03,-0.34,-0.32,-0.0036,0.002
-3.593e-03,-0.34,-0.38,-0.0028,-0.0068
-3.591e-03,-0.36,-0.32,-0.000400001,0.0028
-3.589e-03,-0.34,-0.4,-0.0012,-0.01
-3.587e-03,-0.36,-0.34,-0.0028,0.0028
-3.585e-03,-0.36,-0.4,-0.0012,-0.0076
-3.583e-03,-0.34,-0.34,-0.0028,0.0028
-3.581e-03,-0.36,-0.4,-0.002,-0.0084
-3.579e-03,-0.36,-0.32,0.000399999,0.0036
-3.577e-03,-0.34,-0.4,-0.0028,-0.0076
-3.575e-03,-0.36,-0.34,-0.000400001,0.0028
-3.574e-03,-0.36,-0.4,-0.0036,-0.0084
-3.572e-03,-0.36,-0.34,-0.002,0.0028
-3.570e-03,-0.36,-0.4,-0.0036,-0.0068
-3.568e-03,-0.36,-0.34,-0.002,0.0028
-3.566e-03,-0.36,-0.4,-0.0036,-0.0076
-3.564e-03,-0.36,-0.34,-0.0028,0.0036
-3.562e-03,-0.36,-0.4,-0.000400001,-0.0084
-3.560e-03,-0.36,-0.34,-0.0012,0.0028
-3.558e-03,-0.36,-0.4,-0.0028,-0.0068
-3.556e-03,-0.36,-0.34,-0.002,0.002
-3.554e-03,-0.36,-0.4,-0.0052,-0.0068
-3.552e-03,-0.36,-0.34,-0.0044,0.0044
-3.551e-03,-0.36,-0.4,-0.0028,-0.0076
-3.549e-03,-0.36,-0.34,-0.0012,0.0036
-3.547e-03,-0.38,-0.4,-0.000400001,-0.0068
-3.545e-03,-0.36,-0.34,-0.0044,0.0052
-3.543e-03,-0.36,-0.4,-0.0028,-0.0076
-3.541e-03,-0.36,-0.34,-0.0036,0.0028
-3.539e-03,-0.36,-0.4,-0.0044,-0.0076
-3.537e-03,-0.38,-0.34,-0.0044,0.0028
-3.535e-03,-0.38,-0.4,-0.0044,-0.0084
-3.533e-03,-0.36,-0.34,0.000399999,0.0028
-3.531e-03,-0.36,-0.4,-0.0012,-0.0068
-3.529e-03,-0.38,-0.34,-0.0012,0.002
-3.527e-03,-0.38,-0.4,-0.0012,-0.0068
-3.526e-03,-0.36,-0.34,-0.0044,0.0028
-3.524e-03,-0.38,-0.4,-0.0028,-0.0068
-3.522e-03,-0.38,-0.34,0.0012,0.0036
-3.520e-03,-0.36,-0.4,-0.002,-0.0076
-3.518e-03,-0.38,-0.36,-0.0028,0.0028
-3.516e-03,-0.38,-0.42,-0.0028,-0.0084
-3.514e-03,-0.38,-0.36,-0.0036,0.0028
-3.512e-03,-0.38,-0.4,-0.0028,-0.0084
-3.510e-03,-0.36,-0.36,-0.0012,0.0036
-3.508e-03,-0.38,-0.42,-0.0028,-0.0068
-3.506e-03,-0.38,-0.34,-0.002,0.0028
-3.504e-03,-0.36,-0.42,-0.0052,-0.0076
-3.503e-03,-0.38,-0.36,0.000399999,0.0028
-3.501e-03,-0.36,-0.4,-0.000400001,-0.006
-3.499e-03,-0.38,-0.36,-0.0028,0.0028
-3.497e-03,-0.38,-0.42,-0.0028,-0.0076
-3.495e-03,-0.38,-0.36,-0.0044,0.0028
-3.493e-03,-0.36,-0.42,-0.0028,-0.0084
-3.491e-03,-0.38,-0.36,-0.0036,0.002
-3.489e-03,-0.4,-0.42,-0.0012,-0.0076
-3.487e-03,-0.38,-0.36,-0.002,0.0028
-3.485e-03,-0.38,-0.42,-0.0012,-0.0076
-3.483e-03,-0.38,-0.36,0.0012,0.0028
-3.481e-03,-0.38,-0.42,-0.0028,-0.0068
-3.479e-03,-0.38,-0.36,-0.0028,0.0036
-3.478e-03,-0.4,-0.42,-0.0036,-0.0084
-3.476e-03,-0.38,-0.36,-0.0044,0.0044
-3.474e-03,-0.38,-0.42,-0.000400001,-0.0068
-3.472e-03,-0.38,-0.36,-0.0012,0.0036
-3.470e-03,-0.4,-0.42,-0.0012,-0.0068
-3.468e-03,-0.38,-0.36,-0.0012,0.0028
-3.466e-03,-0.38,-0.42,-0.0036,-0.0084
-3.464e-03,-0.38,-0.36,-0.0012,0.0036
-3.462e-03,-0.4,-0.42,-0.0036,-0.0076
-3.460e-03,-0.38,-0.36,-0.0012,0.0028
-3.458e-03,-0.38,-0.42,-0.0044,-0.01
-3.456e-03,-0.38,-0.36,-0.002,0.002
-3.455e-03,-0.4,-0.42,-0.0044,-0.0068
-3.453e-03,-0.38,-0.36,0.0012,0.0028
-3.451e-03,-0.38,-0.42,-0.000400001,-0.0084
-3.449e-03,-0.4,-0.36,-0.000400001,0.0036
-3.447e-03,-0.4,-0.42,-0.0044,-0.0076
-3.445e-03,-0.38,-0.36,-0.0028,0.0028
-3.443e-03,-0.38,-0.42,-0.002,-0.0068
-3.441e-03,-0.4,-0.36,-0.0036,0.0028
-3.439e-03,-0.4,-0.42,-0.0036,-0.0068
-3.437e-03,-0.38,-0.36,-0.000400001,0.0036
-3.435e-03,-0.4,-0.42,-0.0028,-0.0084
-3.433e-03,-0.4,-0.36,-0.0012,0.002
-3.431e-03,-0.4,-0.42,-0.0028,-0.0068
-3.430e-03,-0.4,-0.36,-0.0012,0.0028
-3.428e-03,-0.38,-0.44,-0.0052,-0.0068
-3.426e-03,-0.38,-0.36,-0.0028,0.002
-3.424e-03,-0.4,-0.42,0.000399999,-0.006
-3.422e-03,-0.4,-0.36,-0.0012,0.0036
-3.420e-03,-0.38,-0.44,-0.0028,-0.0068
-3.418e-03,-0.4,-0.36,0.000399999,0.0044
-3.416e-03,-0.38,-0.44,-0.002,-0.0068
-3.414e-03,-0.4,-0.38,-0.002,0.0028
-3.412e-03,-0.4,-0.44,-0.0028,-0.0068
-3.410e-03,-0.38,-0.38,-0.0012,0.0036
-3.408e-03,-0.4,-0.42,-0.002,-0.0076
-3.406e-03,-0.4,-0.38,-0.0028,0.0036
-3.405e-03,-0.4,-0.44,-0.0012,-0.0068
-3.403e-03,-0.38,-0.38,-0.0012,0.0028
-3.401e-03,-0.4,-0.44,-0.0012,-0.0068
-3.399e-03,-0.4,-0.38,-0.0012,0.0044
-3.397e-03,-0.4,-0.44,-0.000400001,-0.006
-3.395e-03,-0.42,-0.38,-0.0012,0.0036
-3.393e-03,-0.4,-0.44,-0.0012,-0.0076
-3.391e-03,-0.4,-0.38,0.000399999,0.0036
